ord_id;dlv_dt;slot_id;ord_stat;prod_id;it_qy;cnsm_id;stor_id;shft_grp_cd;nwtn_aloc_stat;WMS1_ALOC_STAT;WMS2_ALOC_STAT
a35190775      ;2018/01/15 00:00:00.000;52440023;C;0;1;1859    ;GAN    ;1;N;N;N
a35190775      ;2018/01/15 00:00:00.000;52440023;C;0;1;1859    ;GAN    ;1;N;N;N
a35190775      ;2018/01/15 00:00:00.000;52440023;C;0;1;1859    ;GAN    ;1;N;N;N
a35190775      ;2018/01/15 00:00:00.000;52440023;C;0;1;1859    ;GAN    ;1;N;N;N
a35190775      ;2018/01/15 00:00:00.000;52440023;C;148102;1;1859    ;GAN    ;1;N;N;N
a35190775      ;2018/01/15 00:00:00.000;52440023;C;184016;1;1859    ;GAN    ;1;N;N;N
a35190775      ;2018/01/15 00:00:00.000;52440023;C;211763;1;1859    ;GAN    ;1;N;N;N
a35190775      ;2018/01/15 00:00:00.000;52440023;C;217720;1;1859    ;GAN    ;1;N;N;N
a77396876      ;2018/01/15 00:00:00.000;52440448;C;0;1;2225    ;GAN    ;1;N;N;N
a77396876      ;2018/01/15 00:00:00.000;52440448;C;0;1;2225    ;GAN    ;1;N;N;N
a77396876      ;2018/01/15 00:00:00.000;52440448;C;0;1;2225    ;GAN    ;1;N;N;N
a77396876      ;2018/01/15 00:00:00.000;52440448;C;0;1;2225    ;GAN    ;1;N;N;N
a77396876      ;2018/01/15 00:00:00.000;52440448;C;31463;1;2225    ;GAN    ;1;N;N;N
a77396876      ;2018/01/15 00:00:00.000;52440448;C;31470;1;2225    ;GAN    ;1;N;N;N
a77396876      ;2018/01/15 00:00:00.000;52440448;C;31480;1;2225    ;GAN    ;1;N;N;N
a77396876      ;2018/01/15 00:00:00.000;52440448;C;178322;1;2225    ;GAN    ;1;N;N;N
a77396876      ;2018/01/15 00:00:00.000;52440448;C;192670;1;2225    ;GAN    ;1;N;N;N
a77396876      ;2018/01/15 00:00:00.000;52440448;C;221866;1;2225    ;GAN    ;1;N;N;N
a98789754      ;2018/01/15 00:00:00.000;52440180;C;0;1;1859    ;GAN    ;2;N;N;N
a98789754      ;2018/01/15 00:00:00.000;52440180;C;0;1;1859    ;GAN    ;2;N;N;N
a98789754      ;2018/01/15 00:00:00.000;52440180;C;0;1;1859    ;GAN    ;2;N;N;N
a98789754      ;2018/01/15 00:00:00.000;52440180;C;221866;8;1859    ;GAN    ;2;N;N;N
d98790105      ;2018/01/15 00:00:00.000;52444330;S;0;1;av11427 ;GDA    ;2;N;N;N
d98790105      ;2018/01/15 00:00:00.000;52444330;S;0;1;av11427 ;GDA    ;2;N;N;N
d98790105      ;2018/01/15 00:00:00.000;52444330;S;128030;1;av11427 ;GDA    ;2;N;N;N
d98790105      ;2018/01/15 00:00:00.000;52444330;S;130340;1;av11427 ;GDA    ;2;N;N;N
d98790105      ;2018/01/15 00:00:00.000;52444330;S;132635;1;av11427 ;GDA    ;2;N;N;N
d98790105      ;2018/01/15 00:00:00.000;52444330;S;132642;1;av11427 ;GDA    ;2;N;N;N
d98790105      ;2018/01/15 00:00:00.000;52444330;S;157076;1;av11427 ;GDA    ;2;N;N;N
d98790105      ;2018/01/15 00:00:00.000;52444330;S;159219;1;av11427 ;GDA    ;2;N;N;N
d98790105      ;2018/01/15 00:00:00.000;52444330;S;186068;1;av11427 ;GDA    ;2;N;N;N
d98790105      ;2018/01/15 00:00:00.000;52444330;S;219687;1;av11427 ;GDA    ;2;N;N;N
d98790105      ;2018/01/15 00:00:00.000;52444330;S;221399;1;av11427 ;GDA    ;2;N;N;N
d98790105      ;2018/01/15 00:00:00.000;52444330;S;221402;1;av11427 ;GDA    ;2;N;N;N
d98790105      ;2018/01/15 00:00:00.000;52444330;S;221405;1;av11427 ;GDA    ;2;N;N;N
d98790106      ;2018/01/15 00:00:00.000;52444347;S;0;1;ay90133 ;GDA    ;2;N;N;N
d98790106      ;2018/01/15 00:00:00.000;52444347;S;0;1;ay90133 ;GDA    ;2;N;N;N
d98790106      ;2018/01/15 00:00:00.000;52444347;S;6003;1;ay90133 ;GDA    ;2;N;N;N
d98790106      ;2018/01/15 00:00:00.000;52444347;S;6428;1;ay90133 ;GDA    ;2;N;N;N
d98790106      ;2018/01/15 00:00:00.000;52444347;S;22704;1;ay90133 ;GDA    ;2;N;N;N
d98790106      ;2018/01/15 00:00:00.000;52444347;S;22742;1;ay90133 ;GDA    ;2;N;N;N
d98790106      ;2018/01/15 00:00:00.000;52444347;S;35017;1;ay90133 ;GDA    ;2;N;N;N
d98790106      ;2018/01/15 00:00:00.000;52444347;S;35423;1;ay90133 ;GDA    ;2;N;N;N
d98790106      ;2018/01/15 00:00:00.000;52444347;S;36117;1;ay90133 ;GDA    ;2;N;N;N
d98790106      ;2018/01/15 00:00:00.000;52444347;S;57399;1;ay90133 ;GDA    ;2;N;N;N
d98790106      ;2018/01/15 00:00:00.000;52444347;S;57406;1;ay90133 ;GDA    ;2;N;N;N
d98790106      ;2018/01/15 00:00:00.000;52444347;S;118738;1;ay90133 ;GDA    ;2;N;N;N
d98790106      ;2018/01/15 00:00:00.000;52444347;S;126186;1;ay90133 ;GDA    ;2;N;N;N
d98790106      ;2018/01/15 00:00:00.000;52444347;S;127334;1;ay90133 ;GDA    ;2;N;N;N
d98790106      ;2018/01/15 00:00:00.000;52444347;S;127499;1;ay90133 ;GDA    ;2;N;N;N
d98790106      ;2018/01/15 00:00:00.000;52444347;S;134843;1;ay90133 ;GDA    ;2;N;N;N
d98790106      ;2018/01/15 00:00:00.000;52444347;S;136016;1;ay90133 ;GDA    ;2;N;N;N
d98790106      ;2018/01/15 00:00:00.000;52444347;S;153745;1;ay90133 ;GDA    ;2;N;N;N
d98790106      ;2018/01/15 00:00:00.000;52444347;S;161649;1;ay90133 ;GDA    ;2;N;N;N
d98790106      ;2018/01/15 00:00:00.000;52444347;S;167109;1;ay90133 ;GDA    ;2;N;N;N
d98790106      ;2018/01/15 00:00:00.000;52444347;S;171674;1;ay90133 ;GDA    ;2;N;N;N
d98790106      ;2018/01/15 00:00:00.000;52444347;S;175188;1;ay90133 ;GDA    ;2;N;N;N
d98790106      ;2018/01/15 00:00:00.000;52444347;S;190326;1;ay90133 ;GDA    ;2;N;N;N
d98790106      ;2018/01/15 00:00:00.000;52444347;S;191110;1;ay90133 ;GDA    ;2;N;N;N
d98790106      ;2018/01/15 00:00:00.000;52444347;S;192131;1;ay90133 ;GDA    ;2;N;N;N
d98790106      ;2018/01/15 00:00:00.000;52444347;S;199577;1;ay90133 ;GDA    ;2;N;N;N
d98790108      ;2018/01/15 00:00:00.000;52445803;S;0;1;ey20822 ;GDF    ;2;N;N;N
d98790108      ;2018/01/15 00:00:00.000;52445803;S;0;1;ey20822 ;GDF    ;2;N;N;N
d98790108      ;2018/01/15 00:00:00.000;52445803;S;0;1;ey20822 ;GDF    ;2;N;N;N
d98790108      ;2018/01/15 00:00:00.000;52445803;S;0;1;ey20822 ;GDF    ;2;N;N;N
d98790108      ;2018/01/15 00:00:00.000;52445803;S;6739;1;ey20822 ;GDF    ;2;N;N;N
d98790108      ;2018/01/15 00:00:00.000;52445803;S;6952;1;ey20822 ;GDF    ;2;N;N;N
d98790108      ;2018/01/15 00:00:00.000;52445803;S;6976;2;ey20822 ;GDF    ;2;N;N;N
d98790108      ;2018/01/15 00:00:00.000;52445803;S;6979;1;ey20822 ;GDF    ;2;N;N;N
d98790108      ;2018/01/15 00:00:00.000;52445803;S;7007;1;ey20822 ;GDF    ;2;N;N;N
d98790108      ;2018/01/15 00:00:00.000;52445803;S;7010;1;ey20822 ;GDF    ;2;N;N;N
d98790108      ;2018/01/15 00:00:00.000;52445803;S;22093;1;ey20822 ;GDF    ;2;N;N;N
d98790108      ;2018/01/15 00:00:00.000;52445803;S;30920;2;ey20822 ;GDF    ;2;N;N;N
d98790108      ;2018/01/15 00:00:00.000;52445803;S;34170;2;ey20822 ;GDF    ;2;N;N;N
d98790108      ;2018/01/15 00:00:00.000;52445803;S;47581;1;ey20822 ;GDF    ;2;N;N;N
d98790108      ;2018/01/15 00:00:00.000;52445803;S;50590;2;ey20822 ;GDF    ;2;N;N;N
d98790108      ;2018/01/15 00:00:00.000;52445803;S;59064;1;ey20822 ;GDF    ;2;N;N;N
d98790108      ;2018/01/15 00:00:00.000;52445803;S;59065;1;ey20822 ;GDF    ;2;N;N;N
d98790108      ;2018/01/15 00:00:00.000;52445803;S;88704;2;ey20822 ;GDF    ;2;N;N;N
d98790108      ;2018/01/15 00:00:00.000;52445803;S;127880;1;ey20822 ;GDF    ;2;N;N;N
d98790108      ;2018/01/15 00:00:00.000;52445803;S;142951;2;ey20822 ;GDF    ;2;N;N;N
d98790108      ;2018/01/15 00:00:00.000;52445803;S;145284;2;ey20822 ;GDF    ;2;N;N;N
d98790108      ;2018/01/15 00:00:00.000;52445803;S;146363;1;ey20822 ;GDF    ;2;N;N;N
d98790108      ;2018/01/15 00:00:00.000;52445803;S;146364;1;ey20822 ;GDF    ;2;N;N;N
d98790108      ;2018/01/15 00:00:00.000;52445803;S;148979;1;ey20822 ;GDF    ;2;N;N;N
d98790108      ;2018/01/15 00:00:00.000;52445803;S;151366;1;ey20822 ;GDF    ;2;N;N;N
d98790108      ;2018/01/15 00:00:00.000;52445803;S;152423;1;ey20822 ;GDF    ;2;N;N;N
d98790108      ;2018/01/15 00:00:00.000;52445803;S;154362;2;ey20822 ;GDF    ;2;N;N;N
d98790108      ;2018/01/15 00:00:00.000;52445803;S;154728;1;ey20822 ;GDF    ;2;N;N;N
d98790108      ;2018/01/15 00:00:00.000;52445803;S;158308;2;ey20822 ;GDF    ;2;N;N;N
d98790108      ;2018/01/15 00:00:00.000;52445803;S;158311;1;ey20822 ;GDF    ;2;N;N;N
d98790108      ;2018/01/15 00:00:00.000;52445803;S;160318;1;ey20822 ;GDF    ;2;N;N;N
d98790108      ;2018/01/15 00:00:00.000;52445803;S;164906;3;ey20822 ;GDF    ;2;N;N;N
d98790108      ;2018/01/15 00:00:00.000;52445803;S;167077;1;ey20822 ;GDF    ;2;N;N;N
d98790108      ;2018/01/15 00:00:00.000;52445803;S;190685;2;ey20822 ;GDF    ;2;N;N;N
d98790108      ;2018/01/15 00:00:00.000;52445803;S;196538;1;ey20822 ;GDF    ;2;N;N;N
d98790108      ;2018/01/15 00:00:00.000;52445803;S;198829;2;ey20822 ;GDF    ;2;N;N;N
d98790108      ;2018/01/15 00:00:00.000;52445803;S;202338;1;ey20822 ;GDF    ;2;N;N;N
d98790108      ;2018/01/15 00:00:00.000;52445803;S;202511;1;ey20822 ;GDF    ;2;N;N;N
d98790108      ;2018/01/15 00:00:00.000;52445803;S;202532;1;ey20822 ;GDF    ;2;N;N;N
d98790108      ;2018/01/15 00:00:00.000;52445803;S;210888;1;ey20822 ;GDF    ;2;N;N;N
d98790108      ;2018/01/15 00:00:00.000;52445803;S;212714;1;ey20822 ;GDF    ;2;N;N;N
d98790108      ;2018/01/15 00:00:00.000;52445803;S;222020;1;ey20822 ;GDF    ;2;N;N;N
d98790108      ;2018/01/15 00:00:00.000;52445803;S;222358;2;ey20822 ;GDF    ;2;N;N;N
d98790109      ;2018/01/15 00:00:00.000;52445805;S;0;1;ky82049 ;GDF    ;2;N;N;N
d98790109      ;2018/01/15 00:00:00.000;52445805;S;0;1;ky82049 ;GDF    ;2;N;N;N
d98790109      ;2018/01/15 00:00:00.000;52445805;S;0;1;ky82049 ;GDF    ;2;N;N;N
d98790109      ;2018/01/15 00:00:00.000;52445805;S;22421;1;ky82049 ;GDF    ;2;N;N;N
d98790109      ;2018/01/15 00:00:00.000;52445805;S;39805;2;ky82049 ;GDF    ;2;N;N;N
d98790109      ;2018/01/15 00:00:00.000;52445805;S;57869;1;ky82049 ;GDF    ;2;N;N;N
d98790109      ;2018/01/15 00:00:00.000;52445805;S;58161;1;ky82049 ;GDF    ;2;N;N;N
d98790109      ;2018/01/15 00:00:00.000;52445805;S;58242;1;ky82049 ;GDF    ;2;N;N;N
d98790109      ;2018/01/15 00:00:00.000;52445805;S;92854;1;ky82049 ;GDF    ;2;N;N;N
d98790109      ;2018/01/15 00:00:00.000;52445805;S;117732;1;ky82049 ;GDF    ;2;N;N;N
d98790109      ;2018/01/15 00:00:00.000;52445805;S;118569;1;ky82049 ;GDF    ;2;N;N;N
d98790109      ;2018/01/15 00:00:00.000;52445805;S;124873;1;ky82049 ;GDF    ;2;N;N;N
d98790109      ;2018/01/15 00:00:00.000;52445805;S;125953;1;ky82049 ;GDF    ;2;N;N;N
d98790109      ;2018/01/15 00:00:00.000;52445805;S;127766;2;ky82049 ;GDF    ;2;N;N;N
d98790109      ;2018/01/15 00:00:00.000;52445805;S;129868;1;ky82049 ;GDF    ;2;N;N;N
d98790109      ;2018/01/15 00:00:00.000;52445805;S;138308;2;ky82049 ;GDF    ;2;N;N;N
d98790109      ;2018/01/15 00:00:00.000;52445805;S;145909;1;ky82049 ;GDF    ;2;N;N;N
d98790109      ;2018/01/15 00:00:00.000;52445805;S;150573;1;ky82049 ;GDF    ;2;N;N;N
d98790109      ;2018/01/15 00:00:00.000;52445805;S;156440;2;ky82049 ;GDF    ;2;N;N;N
d98790109      ;2018/01/15 00:00:00.000;52445805;S;159346;1;ky82049 ;GDF    ;2;N;N;N
d98790109      ;2018/01/15 00:00:00.000;52445805;S;167448;1;ky82049 ;GDF    ;2;N;N;N
d98790109      ;2018/01/15 00:00:00.000;52445805;S;196117;2;ky82049 ;GDF    ;2;N;N;N
d98790109      ;2018/01/15 00:00:00.000;52445805;S;200211;1;ky82049 ;GDF    ;2;N;N;N
d98790109      ;2018/01/15 00:00:00.000;52445805;S;201654;2;ky82049 ;GDF    ;2;N;N;N
i98790033      ;2018/01/15 00:00:00.000;52561023;C;0;1;ai011415;GIJ    ;1;Y;N;Y
i98790033      ;2018/01/15 00:00:00.000;52561023;C;0;1;ai011415;GIJ    ;1;Y;N;Y
i98790033      ;2018/01/15 00:00:00.000;52561023;C;2737;4;ai011415;GIJ    ;1;Y;N;Y
i98790033      ;2018/01/15 00:00:00.000;52561023;C;8951;3;ai011415;GIJ    ;1;Y;N;Y
i98790033      ;2018/01/15 00:00:00.000;52561023;C;20362;5;ai011415;GIJ    ;1;Y;N;Y
i98790033      ;2018/01/15 00:00:00.000;52561023;C;122274;1;ai011415;GIJ    ;1;Y;N;Y
i98790033      ;2018/01/15 00:00:00.000;52561023;C;154723;6;ai011415;GIJ    ;1;Y;N;Y
i98790033      ;2018/01/15 00:00:00.000;52561023;C;177934;4;ai011415;GIJ    ;1;Y;N;Y
i98790033      ;2018/01/15 00:00:00.000;52561023;C;186717;5;ai011415;GIJ    ;1;Y;N;Y
i98790034      ;2018/01/15 00:00:00.000;52561024;C;0;1;bi011415;GIJ    ;1;Y;N;Y
i98790034      ;2018/01/15 00:00:00.000;52561024;C;0;1;bi011415;GIJ    ;1;Y;N;Y
i98790034      ;2018/01/15 00:00:00.000;52561024;C;3937;3;bi011415;GIJ    ;1;Y;N;Y
i98790034      ;2018/01/15 00:00:00.000;52561024;C;6849;3;bi011415;GIJ    ;1;Y;N;Y
i98790034      ;2018/01/15 00:00:00.000;52561024;C;9208;4;bi011415;GIJ    ;1;Y;N;Y
i98790034      ;2018/01/15 00:00:00.000;52561024;C;203934;2;bi011415;GIJ    ;1;Y;N;Y
i98790035      ;2018/01/15 00:00:00.000;52456295;C;0;1;ci011415;GIJ    ;1;Y;N;Y
i98790035      ;2018/01/15 00:00:00.000;52456295;C;0;1;ci011415;GIJ    ;1;Y;N;Y
i98790035      ;2018/01/15 00:00:00.000;52456295;C;608;4;ci011415;GIJ    ;1;Y;N;Y
i98790035      ;2018/01/15 00:00:00.000;52456295;C;691;4;ci011415;GIJ    ;1;Y;N;Y
i98790035      ;2018/01/15 00:00:00.000;52456295;C;47591;5;ci011415;GIJ    ;1;Y;N;Y
i98790035      ;2018/01/15 00:00:00.000;52456295;C;61409;5;ci011415;GIJ    ;1;Y;N;Y
i98790035      ;2018/01/15 00:00:00.000;52456295;C;115536;6;ci011415;GIJ    ;1;Y;N;Y
i98790035      ;2018/01/15 00:00:00.000;52456295;C;149468;5;ci011415;GIJ    ;1;Y;N;Y
i98790035      ;2018/01/15 00:00:00.000;52456295;C;157247;5;ci011415;GIJ    ;1;Y;N;Y
i98790035      ;2018/01/15 00:00:00.000;52456295;C;159327;5;ci011415;GIJ    ;1;Y;N;Y
i98790035      ;2018/01/15 00:00:00.000;52456295;C;164717;4;ci011415;GIJ    ;1;Y;N;Y
i98790036      ;2018/01/15 00:00:00.000;52561025;C;0;1;di011415;GIJ    ;1;Y;N;Y
i98790036      ;2018/01/15 00:00:00.000;52561025;C;0;1;di011415;GIJ    ;1;Y;N;Y
i98790036      ;2018/01/15 00:00:00.000;52561025;C;162305;6;di011415;GIJ    ;1;Y;N;Y
i98790036      ;2018/01/15 00:00:00.000;52561025;C;175044;6;di011415;GIJ    ;1;Y;N;Y
i98790036      ;2018/01/15 00:00:00.000;52561025;C;191311;6;di011415;GIJ    ;1;Y;N;Y
i98790037      ;2018/01/15 00:00:00.000;52456296;C;0;1;ei011415;GIJ    ;1;Y;N;Y
i98790037      ;2018/01/15 00:00:00.000;52456296;C;0;1;ei011415;GIJ    ;1;Y;N;Y
i98790037      ;2018/01/15 00:00:00.000;52456296;C;10683;6;ei011415;GIJ    ;1;Y;N;Y
i98790037      ;2018/01/15 00:00:00.000;52456296;C;12481;4;ei011415;GIJ    ;1;Y;N;Y
i98790037      ;2018/01/15 00:00:00.000;52456296;C;160136;7;ei011415;GIJ    ;1;Y;N;Y
i98790038      ;2018/01/15 00:00:00.000;52456297;C;0;1;fi011415;GIJ    ;1;Y;N;Y
i98790038      ;2018/01/15 00:00:00.000;52456297;C;0;1;fi011415;GIJ    ;1;Y;N;Y
i98790038      ;2018/01/15 00:00:00.000;52456297;C;465;5;fi011415;GIJ    ;1;Y;N;Y
i98790038      ;2018/01/15 00:00:00.000;52456297;C;2455;2;fi011415;GIJ    ;1;Y;N;Y
i98790038      ;2018/01/15 00:00:00.000;52456297;C;6739;3;fi011415;GIJ    ;1;Y;N;Y
i98790038      ;2018/01/15 00:00:00.000;52456297;C;6831;9;fi011415;GIJ    ;1;Y;N;Y
i98790038      ;2018/01/15 00:00:00.000;52456297;C;128848;3;fi011415;GIJ    ;1;Y;N;Y
i98790038      ;2018/01/15 00:00:00.000;52456297;C;158147;8;fi011415;GIJ    ;1;Y;N;Y
i98790039      ;2018/01/15 00:00:00.000;52561026;C;0;1;gi011415;GIJ    ;1;Y;N;Y
i98790039      ;2018/01/15 00:00:00.000;52561026;C;0;1;gi011415;GIJ    ;1;Y;N;Y
i98790039      ;2018/01/15 00:00:00.000;52561026;C;465;5;gi011415;GIJ    ;1;Y;N;Y
i98790039      ;2018/01/15 00:00:00.000;52561026;C;2455;2;gi011415;GIJ    ;1;Y;N;Y
i98790039      ;2018/01/15 00:00:00.000;52561026;C;6830;1;gi011415;GIJ    ;1;Y;N;Y
i98790039      ;2018/01/15 00:00:00.000;52561026;C;12158;7;gi011415;GIJ    ;1;Y;N;Y
i98790039      ;2018/01/15 00:00:00.000;52561026;C;50713;1;gi011415;GIJ    ;1;Y;N;Y
i98790039      ;2018/01/15 00:00:00.000;52561026;C;132138;4;gi011415;GIJ    ;1;Y;N;Y
i98790040      ;2018/01/15 00:00:00.000;52561027;C;0;1;hi011415;GIJ    ;1;Y;N;Y
i98790040      ;2018/01/15 00:00:00.000;52561027;C;0;1;hi011415;GIJ    ;1;Y;N;Y
i98790040      ;2018/01/15 00:00:00.000;52561027;C;6739;2;hi011415;GIJ    ;1;Y;N;Y
i98790040      ;2018/01/15 00:00:00.000;52561027;C;6831;7;hi011415;GIJ    ;1;Y;N;Y
i98790040      ;2018/01/15 00:00:00.000;52561027;C;128848;1;hi011415;GIJ    ;1;Y;N;Y
i98790040      ;2018/01/15 00:00:00.000;52561027;C;132138;6;hi011415;GIJ    ;1;Y;N;Y
i98790040      ;2018/01/15 00:00:00.000;52561027;C;158147;6;hi011415;GIJ    ;1;Y;N;Y
i98790041      ;2018/01/15 00:00:00.000;52561028;C;0;1;ii011415;GIJ    ;1;Y;N;Y
i98790041      ;2018/01/15 00:00:00.000;52561028;C;0;1;ii011415;GIJ    ;1;Y;N;Y
i98790041      ;2018/01/15 00:00:00.000;52561028;C;1761;2;ii011415;GIJ    ;1;Y;N;Y
i98790041      ;2018/01/15 00:00:00.000;52561028;C;2214;2;ii011415;GIJ    ;1;Y;N;Y
i98790041      ;2018/01/15 00:00:00.000;52561028;C;2774;3;ii011415;GIJ    ;1;Y;N;Y
i98790041      ;2018/01/15 00:00:00.000;52561028;C;3396;3;ii011415;GIJ    ;1;Y;N;Y
i98790041      ;2018/01/15 00:00:00.000;52561028;C;27081;2;ii011415;GIJ    ;1;Y;N;Y
i98790041      ;2018/01/15 00:00:00.000;52561028;C;57699;3;ii011415;GIJ    ;1;Y;N;Y
i98790041      ;2018/01/15 00:00:00.000;52561028;C;143866;3;ii011415;GIJ    ;1;Y;N;Y
i98790041      ;2018/01/15 00:00:00.000;52561028;C;156070;2;ii011415;GIJ    ;1;Y;N;Y
i98790042      ;2018/01/15 00:00:00.000;52561029;C;0;1;ji011415;GIJ    ;1;Y;N;Y
i98790042      ;2018/01/15 00:00:00.000;52561029;C;0;1;ji011415;GIJ    ;1;Y;N;Y
i98790042      ;2018/01/15 00:00:00.000;52561029;C;744;4;ji011415;GIJ    ;1;Y;N;Y
i98790042      ;2018/01/15 00:00:00.000;52561029;C;6175;4;ji011415;GIJ    ;1;Y;N;Y
i98790042      ;2018/01/15 00:00:00.000;52561029;C;7111;3;ji011415;GIJ    ;1;Y;N;Y
i98790042      ;2018/01/15 00:00:00.000;52561029;C;57660;2;ji011415;GIJ    ;1;Y;N;Y
i98790042      ;2018/01/15 00:00:00.000;52561029;C;146238;2;ji011415;GIJ    ;1;Y;N;Y
i98790042      ;2018/01/15 00:00:00.000;52561029;C;156070;3;ji011415;GIJ    ;1;Y;N;Y
i98790042      ;2018/01/15 00:00:00.000;52561029;C;189893;2;ji011415;GIJ    ;1;Y;N;Y
i98790043      ;2018/01/15 00:00:00.000;52561030;C;0;1;ki011415;GIJ    ;1;Y;N;Y
i98790043      ;2018/01/15 00:00:00.000;52561030;C;0;1;ki011415;GIJ    ;1;Y;N;Y
i98790043      ;2018/01/15 00:00:00.000;52561030;C;1761;3;ki011415;GIJ    ;1;Y;N;Y
i98790043      ;2018/01/15 00:00:00.000;52561030;C;6175;3;ki011415;GIJ    ;1;Y;N;Y
i98790043      ;2018/01/15 00:00:00.000;52561030;C;6770;5;ki011415;GIJ    ;1;Y;N;Y
i98790043      ;2018/01/15 00:00:00.000;52561030;C;27081;2;ki011415;GIJ    ;1;Y;N;Y
i98790043      ;2018/01/15 00:00:00.000;52561030;C;57699;2;ki011415;GIJ    ;1;Y;N;Y
i98790043      ;2018/01/15 00:00:00.000;52561030;C;140511;3;ki011415;GIJ    ;1;Y;N;Y
i98790043      ;2018/01/15 00:00:00.000;52561030;C;146238;3;ki011415;GIJ    ;1;Y;N;Y
i98790043      ;2018/01/15 00:00:00.000;52561030;C;189893;2;ki011415;GIJ    ;1;Y;N;Y
i98790139      ;2018/01/16 00:00:00.000;52474806;S;0;1;ai011972;GIH    ;2;N;N;N
i98790139      ;2018/01/16 00:00:00.000;52474806;S;0;1;ai011972;GIH    ;2;N;N;N
i98790139      ;2018/01/16 00:00:00.000;52474806;S;7790;1;ai011972;GIH    ;2;N;N;N
i98790139      ;2018/01/16 00:00:00.000;52474806;S;8311;1;ai011972;GIH    ;2;N;N;N
i98790139      ;2018/01/16 00:00:00.000;52474806;S;20094;1;ai011972;GIH    ;2;N;N;N
i98790139      ;2018/01/16 00:00:00.000;52474806;S;41662;1;ai011972;GIH    ;2;N;N;N
i98790139      ;2018/01/16 00:00:00.000;52474806;S;42774;1;ai011972;GIH    ;2;N;N;N
i98790139      ;2018/01/16 00:00:00.000;52474806;S;49712;1;ai011972;GIH    ;2;N;N;N
i98790139      ;2018/01/16 00:00:00.000;52474806;S;74850;1;ai011972;GIH    ;2;N;N;N
i98790139      ;2018/01/16 00:00:00.000;52474806;S;75872;2;ai011972;GIH    ;2;N;N;N
i98790139      ;2018/01/16 00:00:00.000;52474806;S;84601;2;ai011972;GIH    ;2;N;N;N
i98790139      ;2018/01/16 00:00:00.000;52474806;S;134609;1;ai011972;GIH    ;2;N;N;N
i98790139      ;2018/01/16 00:00:00.000;52474806;S;135339;1;ai011972;GIH    ;2;N;N;N
i98790139      ;2018/01/16 00:00:00.000;52474806;S;135704;2;ai011972;GIH    ;2;N;N;N
i98790139      ;2018/01/16 00:00:00.000;52474806;S;136075;1;ai011972;GIH    ;2;N;N;N
i98790139      ;2018/01/16 00:00:00.000;52474806;S;136084;1;ai011972;GIH    ;2;N;N;N
i98790139      ;2018/01/16 00:00:00.000;52474806;S;157135;1;ai011972;GIH    ;2;N;N;N
i98790139      ;2018/01/16 00:00:00.000;52474806;S;157499;2;ai011972;GIH    ;2;N;N;N
i98790139      ;2018/01/16 00:00:00.000;52474806;S;158517;1;ai011972;GIH    ;2;N;N;N
i98790139      ;2018/01/16 00:00:00.000;52474806;S;161500;1;ai011972;GIH    ;2;N;N;N
i98790140      ;2018/01/16 00:00:00.000;52474806;S;0;1;bi011974;GIH    ;2;N;N;N
i98790140      ;2018/01/16 00:00:00.000;52474806;S;0;1;bi011974;GIH    ;2;N;N;N
i98790140      ;2018/01/16 00:00:00.000;52474806;S;9714;2;bi011974;GIH    ;2;N;N;N
i98790140      ;2018/01/16 00:00:00.000;52474806;S;17151;1;bi011974;GIH    ;2;N;N;N
i98790140      ;2018/01/16 00:00:00.000;52474806;S;161580;1;bi011974;GIH    ;2;N;N;N
i98790140      ;2018/01/16 00:00:00.000;52474806;S;185828;2;bi011974;GIH    ;2;N;N;N
i98790140      ;2018/01/16 00:00:00.000;52474806;S;186153;1;bi011974;GIH    ;2;N;N;N
i98790140      ;2018/01/16 00:00:00.000;52474806;S;192182;1;bi011974;GIH    ;2;N;N;N
i98790140      ;2018/01/16 00:00:00.000;52474806;S;205810;1;bi011974;GIH    ;2;N;N;N
i98790140      ;2018/01/16 00:00:00.000;52474806;S;212461;2;bi011974;GIH    ;2;N;N;N
i98790140      ;2018/01/16 00:00:00.000;52474806;S;212472;1;bi011974;GIH    ;2;N;N;N
i98790140      ;2018/01/16 00:00:00.000;52474806;S;217631;2;bi011974;GIH    ;2;N;N;N
i98790141      ;2018/01/16 00:00:00.000;52474806;S;0;1;ci011974;GIH    ;2;N;N;N
i98790141      ;2018/01/16 00:00:00.000;52474806;S;0;1;ci011974;GIH    ;2;N;N;N
i98790141      ;2018/01/16 00:00:00.000;52474806;S;391;1;ci011974;GIH    ;2;N;N;N
i98790141      ;2018/01/16 00:00:00.000;52474806;S;7790;1;ci011974;GIH    ;2;N;N;N
i98790141      ;2018/01/16 00:00:00.000;52474806;S;9714;2;ci011974;GIH    ;2;N;N;N
i98790141      ;2018/01/16 00:00:00.000;52474806;S;17151;1;ci011974;GIH    ;2;N;N;N
i98790141      ;2018/01/16 00:00:00.000;52474806;S;41662;1;ci011974;GIH    ;2;N;N;N
i98790141      ;2018/01/16 00:00:00.000;52474806;S;84601;5;ci011974;GIH    ;2;N;N;N
i98790141      ;2018/01/16 00:00:00.000;52474806;S;135339;1;ci011974;GIH    ;2;N;N;N
i98790141      ;2018/01/16 00:00:00.000;52474806;S;135704;3;ci011974;GIH    ;2;N;N;N
i98790141      ;2018/01/16 00:00:00.000;52474806;S;136075;1;ci011974;GIH    ;2;N;N;N
i98790141      ;2018/01/16 00:00:00.000;52474806;S;141614;1;ci011974;GIH    ;2;N;N;N
i98790141      ;2018/01/16 00:00:00.000;52474806;S;152422;3;ci011974;GIH    ;2;N;N;N
i98790141      ;2018/01/16 00:00:00.000;52474806;S;153511;2;ci011974;GIH    ;2;N;N;N
i98790141      ;2018/01/16 00:00:00.000;52474806;S;158517;1;ci011974;GIH    ;2;N;N;N
i98790141      ;2018/01/16 00:00:00.000;52474806;S;161500;1;ci011974;GIH    ;2;N;N;N
i98790141      ;2018/01/16 00:00:00.000;52474806;S;161580;1;ci011974;GIH    ;2;N;N;N
i98790141      ;2018/01/16 00:00:00.000;52474806;S;172321;1;ci011974;GIH    ;2;N;N;N
i98790141      ;2018/01/16 00:00:00.000;52474806;S;192182;1;ci011974;GIH    ;2;N;N;N
i98790141      ;2018/01/16 00:00:00.000;52474806;S;205810;1;ci011974;GIH    ;2;N;N;N
i98790141      ;2018/01/16 00:00:00.000;52474806;S;212461;1;ci011974;GIH    ;2;N;N;N
i98790141      ;2018/01/16 00:00:00.000;52474806;S;212472;1;ci011974;GIH    ;2;N;N;N
i98790142      ;2018/01/16 00:00:00.000;52474806;S;0;1;di011974;GIH    ;2;N;N;N
i98790142      ;2018/01/16 00:00:00.000;52474806;S;0;1;di011974;GIH    ;2;N;N;N
i98790142      ;2018/01/16 00:00:00.000;52474806;S;9714;1;di011974;GIH    ;2;N;N;N
i98790142      ;2018/01/16 00:00:00.000;52474806;S;17151;1;di011974;GIH    ;2;N;N;N
i98790142      ;2018/01/16 00:00:00.000;52474806;S;20094;1;di011974;GIH    ;2;N;N;N
i98790142      ;2018/01/16 00:00:00.000;52474806;S;74850;1;di011974;GIH    ;2;N;N;N
i98790142      ;2018/01/16 00:00:00.000;52474806;S;136075;2;di011974;GIH    ;2;N;N;N
i98790142      ;2018/01/16 00:00:00.000;52474806;S;136084;1;di011974;GIH    ;2;N;N;N
i98790142      ;2018/01/16 00:00:00.000;52474806;S;153511;1;di011974;GIH    ;2;N;N;N
i98790142      ;2018/01/16 00:00:00.000;52474806;S;157135;1;di011974;GIH    ;2;N;N;N
i98790142      ;2018/01/16 00:00:00.000;52474806;S;157499;1;di011974;GIH    ;2;N;N;N
i98790142      ;2018/01/16 00:00:00.000;52474806;S;185828;1;di011974;GIH    ;2;N;N;N
i98790142      ;2018/01/16 00:00:00.000;52474806;S;217631;1;di011974;GIH    ;2;N;N;N
i98790143      ;2018/01/16 00:00:00.000;52474806;S;0;1;ei011974;GIH    ;2;N;N;N
i98790143      ;2018/01/16 00:00:00.000;52474806;S;0;1;ei011974;GIH    ;2;N;N;N
i98790143      ;2018/01/16 00:00:00.000;52474806;S;391;1;ei011974;GIH    ;2;N;N;N
i98790143      ;2018/01/16 00:00:00.000;52474806;S;42774;1;ei011974;GIH    ;2;N;N;N
i98790143      ;2018/01/16 00:00:00.000;52474806;S;74850;1;ei011974;GIH    ;2;N;N;N
i98790143      ;2018/01/16 00:00:00.000;52474806;S;157499;1;ei011974;GIH    ;2;N;N;N
i98790143      ;2018/01/16 00:00:00.000;52474806;S;185828;1;ei011974;GIH    ;2;N;N;N
i98790143      ;2018/01/16 00:00:00.000;52474806;S;212461;1;ei011974;GIH    ;2;N;N;N
i98790143      ;2018/01/16 00:00:00.000;52474806;S;212472;1;ei011974;GIH    ;2;N;N;N
